<svg xmlns="http://www.w3.org/2000/svg" xmlns:xlink="http://www.w3.org/1999/xlink" width="1439.999" height="161.714" viewBox="0 0 1439.999 161.714">
  <defs>
    <linearGradient id="linear-gradient" x1="-0.244" y1="1.458" x2="1.053" y2="-0.483" gradientUnits="objectBoundingBox">
      <stop offset="0" stop-color="#5ff4f4"/>
      <stop offset="1" stop-color="#1e83f3"/>
    </linearGradient>
  </defs>
  <path id="Union_2" data-name="Union 2" d="M-3020,87.821V0h1440V144.651l-80.4-11.376c-79.2-11.376-240-34.127-399.6-34.127s-320.4,22.752-480,36.971-320.4,19.907-399.6,22.751l-80.4,2.844Z" transform="translate(3020)" fill="url(#linear-gradient)"/>
</svg>
