<svg xmlns="http://www.w3.org/2000/svg" width="268" height="54.979" viewBox="0 0 268 54.979">
  <path id="Subtraction_1" data-name="Subtraction 1" d="M233.142-328.478a57.805,57.805,0,0,1-6.029-.317L21-350.458v-9L227.113-337.8a57.821,57.821,0,0,0,6.029.318A57.037,57.037,0,0,0,289-383.458v9A57.035,57.035,0,0,1,233.142-328.478Z" transform="translate(-20.999 383.458)" fill="#a2a2a2"/>
</svg>
