<svg xmlns="http://www.w3.org/2000/svg" width="20.752" height="20.27" viewBox="0 0 20.752 20.27">
  <g id="like" transform="translate(-1.63 -1.83)">
    <path id="Vector" d="M0,15.7l3.1,2.4a3.077,3.077,0,0,0,1.9.6H8.8a3,3,0,0,0,2.8-2.1L14,9.3a1.874,1.874,0,0,0-1.9-2.6h-4a1.009,1.009,0,0,1-1-1.2l.5-3.2A1.973,1.973,0,0,0,6.3.1,2,2,0,0,0,4.1.8L0,6.9" transform="translate(7.48 2.648)" fill="none" stroke="#303030" stroke-width="1.5"/>
    <path id="Vector-2" data-name="Vector" d="M0,11.7V1.9C0,.5.6,0,2,0H3C4.4,0,5,.5,5,1.9v9.8c0,1.4-.6,1.9-2,1.9H2C.6,13.6,0,13.1,0,11.7Z" transform="translate(2.38 6.65)" fill="none" stroke="#303030" stroke-linecap="round" stroke-linejoin="round" stroke-width="1.5"/>
  </g>
</svg>
